Analysis & Elaboration report for proyectofinal
Thu Jun 13 02:34:19 2019
Quartus Prime Version 18.1.0 Build 625 09/12/2018 SJ Lite Edition


---------------------
; Table of Contents ;
---------------------
  1. Legal Notice
  2. Analysis & Elaboration Summary
  3. Parallel Compilation
  4. Analysis & Elaboration Settings
  5. Port Connectivity Checks: "COFFEE_MACHINE:dut|MULTIPLEXOR:multiplexor_Unit"
  6. Port Connectivity Checks: "COFFEE_MACHINE:dut|DECODER:deco_Unit2"
  7. Port Connectivity Checks: "COFFEE_MACHINE:dut|DECODER:deco_Unit"
  8. Port Connectivity Checks: "COFFEE_MACHINE:dut"
  9. Analysis & Elaboration Messages



----------------
; Legal Notice ;
----------------
Copyright (C) 2018  Intel Corporation. All rights reserved.
Your use of Intel Corporation's design tools, logic functions 
and other software and tools, and its AMPP partner logic 
functions, and any output files from any of the foregoing 
(including device programming or simulation files), and any 
associated documentation or information are expressly subject 
to the terms and conditions of the Intel Program License 
Subscription Agreement, the Intel Quartus Prime License Agreement,
the Intel FPGA IP License Agreement, or other applicable license
agreement, including, without limitation, that your use is for
the sole purpose of programming logic devices manufactured by
Intel and sold by Intel or its authorized distributors.  Please
refer to the applicable agreement for further details.



+-----------------------------------------------------------------------------+
; Analysis & Elaboration Summary                                              ;
+-------------------------------+---------------------------------------------+
; Analysis & Elaboration Status ; Successful - Thu Jun 13 02:34:19 2019       ;
; Quartus Prime Version         ; 18.1.0 Build 625 09/12/2018 SJ Lite Edition ;
; Revision Name                 ; proyectofinal                               ;
; Top-level Entity Name         ; tbcoffee_machine                            ;
; Family                        ; Cyclone V                                   ;
; Logic utilization (in ALMs)   ; N/A until Partition Merge                   ;
; Total registers               ; N/A until Partition Merge                   ;
; Total pins                    ; N/A until Partition Merge                   ;
; Total virtual pins            ; N/A until Partition Merge                   ;
; Total block memory bits       ; N/A until Partition Merge                   ;
; Total PLLs                    ; N/A until Partition Merge                   ;
; Total DLLs                    ; N/A until Partition Merge                   ;
+-------------------------------+---------------------------------------------+


+------------------------------------------+
; Parallel Compilation                     ;
+----------------------------+-------------+
; Processors                 ; Number      ;
+----------------------------+-------------+
; Number detected on machine ; 4           ;
; Maximum allowed            ; 2           ;
;                            ;             ;
; Average used               ; 1.00        ;
; Maximum used               ; 1           ;
;                            ;             ;
; Usage by Processor         ; % Time Used ;
;     Processor 1            ; 100.0%      ;
+----------------------------+-------------+


+---------------------------------------------------------------------------------------------------------------------------+
; Analysis & Elaboration Settings                                                                                           ;
+---------------------------------------------------------------------------------+--------------------+--------------------+
; Option                                                                          ; Setting            ; Default Value      ;
+---------------------------------------------------------------------------------+--------------------+--------------------+
; Device                                                                          ; 5CGXFC7C7F23C8     ;                    ;
; Top-level entity name                                                           ; tbcoffee_machine   ; proyectofinal      ;
; Family name                                                                     ; Cyclone V          ; Cyclone V          ;
; Use smart compilation                                                           ; Off                ; Off                ;
; Enable parallel Assembler and Timing Analyzer during compilation                ; On                 ; On                 ;
; Enable compact report table                                                     ; Off                ; Off                ;
; Restructure Multiplexers                                                        ; Auto               ; Auto               ;
; MLAB Add Timing Constraints For Mixed-Port Feed-Through Mode Setting Don't Care ; Off                ; Off                ;
; Create Debugging Nodes for IP Cores                                             ; Off                ; Off                ;
; Preserve fewer node names                                                       ; On                 ; On                 ;
; Intel FPGA IP Evaluation Mode                                                   ; Enable             ; Enable             ;
; Verilog Version                                                                 ; Verilog_2001       ; Verilog_2001       ;
; VHDL Version                                                                    ; VHDL_1993          ; VHDL_1993          ;
; State Machine Processing                                                        ; Auto               ; Auto               ;
; Safe State Machine                                                              ; Off                ; Off                ;
; Extract Verilog State Machines                                                  ; On                 ; On                 ;
; Extract VHDL State Machines                                                     ; On                 ; On                 ;
; Ignore Verilog initial constructs                                               ; Off                ; Off                ;
; Iteration limit for constant Verilog loops                                      ; 5000               ; 5000               ;
; Iteration limit for non-constant Verilog loops                                  ; 250                ; 250                ;
; Add Pass-Through Logic to Inferred RAMs                                         ; On                 ; On                 ;
; Infer RAMs from Raw Logic                                                       ; On                 ; On                 ;
; Parallel Synthesis                                                              ; On                 ; On                 ;
; DSP Block Balancing                                                             ; Auto               ; Auto               ;
; NOT Gate Push-Back                                                              ; On                 ; On                 ;
; Power-Up Don't Care                                                             ; On                 ; On                 ;
; Remove Redundant Logic Cells                                                    ; Off                ; Off                ;
; Remove Duplicate Registers                                                      ; On                 ; On                 ;
; Ignore CARRY Buffers                                                            ; Off                ; Off                ;
; Ignore CASCADE Buffers                                                          ; Off                ; Off                ;
; Ignore GLOBAL Buffers                                                           ; Off                ; Off                ;
; Ignore ROW GLOBAL Buffers                                                       ; Off                ; Off                ;
; Ignore LCELL Buffers                                                            ; Off                ; Off                ;
; Ignore SOFT Buffers                                                             ; On                 ; On                 ;
; Limit AHDL Integers to 32 Bits                                                  ; Off                ; Off                ;
; Optimization Technique                                                          ; Balanced           ; Balanced           ;
; Carry Chain Length                                                              ; 70                 ; 70                 ;
; Auto Carry Chains                                                               ; On                 ; On                 ;
; Auto Open-Drain Pins                                                            ; On                 ; On                 ;
; Perform WYSIWYG Primitive Resynthesis                                           ; Off                ; Off                ;
; Auto ROM Replacement                                                            ; On                 ; On                 ;
; Auto RAM Replacement                                                            ; On                 ; On                 ;
; Auto DSP Block Replacement                                                      ; On                 ; On                 ;
; Auto Shift Register Replacement                                                 ; Auto               ; Auto               ;
; Allow Shift Register Merging across Hierarchies                                 ; Auto               ; Auto               ;
; Auto Clock Enable Replacement                                                   ; On                 ; On                 ;
; Strict RAM Replacement                                                          ; Off                ; Off                ;
; Allow Synchronous Control Signals                                               ; On                 ; On                 ;
; Force Use of Synchronous Clear Signals                                          ; Off                ; Off                ;
; Auto Resource Sharing                                                           ; Off                ; Off                ;
; Allow Any RAM Size For Recognition                                              ; Off                ; Off                ;
; Allow Any ROM Size For Recognition                                              ; Off                ; Off                ;
; Allow Any Shift Register Size For Recognition                                   ; Off                ; Off                ;
; Use LogicLock Constraints during Resource Balancing                             ; On                 ; On                 ;
; Ignore translate_off and synthesis_off directives                               ; Off                ; Off                ;
; Timing-Driven Synthesis                                                         ; On                 ; On                 ;
; Report Parameter Settings                                                       ; On                 ; On                 ;
; Report Source Assignments                                                       ; On                 ; On                 ;
; Report Connectivity Checks                                                      ; On                 ; On                 ;
; Ignore Maximum Fan-Out Assignments                                              ; Off                ; Off                ;
; Synchronization Register Chain Length                                           ; 3                  ; 3                  ;
; Power Optimization During Synthesis                                             ; Normal compilation ; Normal compilation ;
; HDL message level                                                               ; Level2             ; Level2             ;
; Suppress Register Optimization Related Messages                                 ; Off                ; Off                ;
; Number of Removed Registers Reported in Synthesis Report                        ; 5000               ; 5000               ;
; Number of Swept Nodes Reported in Synthesis Report                              ; 5000               ; 5000               ;
; Number of Inverted Registers Reported in Synthesis Report                       ; 100                ; 100                ;
; Clock MUX Protection                                                            ; On                 ; On                 ;
; Auto Gated Clock Conversion                                                     ; Off                ; Off                ;
; Block Design Naming                                                             ; Auto               ; Auto               ;
; SDC constraint protection                                                       ; Off                ; Off                ;
; Synthesis Effort                                                                ; Auto               ; Auto               ;
; Shift Register Replacement - Allow Asynchronous Clear Signal                    ; On                 ; On                 ;
; Pre-Mapping Resynthesis Optimization                                            ; Off                ; Off                ;
; Analysis & Synthesis Message Level                                              ; Medium             ; Medium             ;
; Disable Register Merging Across Hierarchies                                     ; Auto               ; Auto               ;
; Resource Aware Inference For Block RAM                                          ; On                 ; On                 ;
; Automatic Parallel Synthesis                                                    ; On                 ; On                 ;
; Partial Reconfiguration Bitstream ID                                            ; Off                ; Off                ;
+---------------------------------------------------------------------------------+--------------------+--------------------+


+-------------------------------------------------------------------------------------------------------------------------------------+
; Port Connectivity Checks: "COFFEE_MACHINE:dut|MULTIPLEXOR:multiplexor_Unit"                                                         ;
+------+--------+----------+----------------------------------------------------------------------------------------------------------+
; Port ; Type   ; Severity ; Details                                                                                                  ;
+------+--------+----------+----------------------------------------------------------------------------------------------------------+
; D0   ; Output ; Info     ; Connected to dangling logic. Logic that only feeds a dangling port will be removed.                      ;
; D2   ; Output ; Info     ; Connected to dangling logic. Logic that only feeds a dangling port will be removed.                      ;
; D3   ; Output ; Info     ; Connected to dangling logic. Logic that only feeds a dangling port will be removed.                      ;
; D6   ; Output ; Info     ; Connected to dangling logic. Logic that only feeds a dangling port will be removed.                      ;
; W    ; Output ; Warning  ; Declared by entity but not connected by instance. Logic that only feeds a dangling port will be removed. ;
+------+--------+----------+----------------------------------------------------------------------------------------------------------+


+-----------------------------------------------------------------------------------------------------------------------------------------------------------------------------------------------------------------------+
; Port Connectivity Checks: "COFFEE_MACHINE:dut|DECODER:deco_Unit2"                                                                                                                                                     ;
+--------------+--------+----------+------------------------------------------------------------------------------------------------------------------------------------------------------------------------------------+
; Port         ; Type   ; Severity ; Details                                                                                                                                                                            ;
+--------------+--------+----------+------------------------------------------------------------------------------------------------------------------------------------------------------------------------------------+
; decoType     ; Input  ; Warning  ; Input port expression (32 bits) is wider than the input port (1 bits) it drives.  The 31 most-significant bit(s) in the expression will be dangling if they have no other fanouts. ;
; decoType[-1] ; Input  ; Info     ; Stuck at VCC                                                                                                                                                                       ;
; O2           ; Output ; Info     ; Connected to dangling logic. Logic that only feeds a dangling port will be removed.                                                                                                ;
; O6           ; Output ; Info     ; Connected to dangling logic. Logic that only feeds a dangling port will be removed.                                                                                                ;
+--------------+--------+----------+------------------------------------------------------------------------------------------------------------------------------------------------------------------------------------+


+-----------------------------------------------------------------------------------------------------------------------------------------------------------------------------------------------------------------------+
; Port Connectivity Checks: "COFFEE_MACHINE:dut|DECODER:deco_Unit"                                                                                                                                                      ;
+--------------+--------+----------+------------------------------------------------------------------------------------------------------------------------------------------------------------------------------------+
; Port         ; Type   ; Severity ; Details                                                                                                                                                                            ;
+--------------+--------+----------+------------------------------------------------------------------------------------------------------------------------------------------------------------------------------------+
; decoType     ; Input  ; Warning  ; Input port expression (32 bits) is wider than the input port (1 bits) it drives.  The 31 most-significant bit(s) in the expression will be dangling if they have no other fanouts. ;
; decoType[-1] ; Input  ; Info     ; Stuck at GND                                                                                                                                                                       ;
; O1           ; Output ; Info     ; Connected to dangling logic. Logic that only feeds a dangling port will be removed.                                                                                                ;
; O2           ; Output ; Info     ; Connected to dangling logic. Logic that only feeds a dangling port will be removed.                                                                                                ;
; O3           ; Output ; Info     ; Connected to dangling logic. Logic that only feeds a dangling port will be removed.                                                                                                ;
; O4           ; Output ; Info     ; Connected to dangling logic. Logic that only feeds a dangling port will be removed.                                                                                                ;
; O5           ; Output ; Info     ; Connected to dangling logic. Logic that only feeds a dangling port will be removed.                                                                                                ;
+--------------+--------+----------+------------------------------------------------------------------------------------------------------------------------------------------------------------------------------------+


+---------------------------------------------------------------------------------------------------------------------+
; Port Connectivity Checks: "COFFEE_MACHINE:dut"                                                                      ;
+-----------+--------+----------+-------------------------------------------------------------------------------------+
; Port      ; Type   ; Severity ; Details                                                                             ;
+-----------+--------+----------+-------------------------------------------------------------------------------------+
; CLK       ; Input  ; Info     ; Stuck at GND                                                                        ;
; SUGAR     ; Input  ; Info     ; Stuck at VCC                                                                        ;
; COFFEE_IN ; Input  ; Info     ; Stuck at VCC                                                                        ;
; GLASS     ; Input  ; Info     ; Stuck at GND                                                                        ;
; COIN_IN   ; Input  ; Info     ; Stuck at GND                                                                        ;
; PLACE     ; Output ; Info     ; Connected to dangling logic. Logic that only feeds a dangling port will be removed. ;
; FILL      ; Output ; Info     ; Connected to dangling logic. Logic that only feeds a dangling port will be removed. ;
; COFFE1    ; Output ; Info     ; Connected to dangling logic. Logic that only feeds a dangling port will be removed. ;
; COFEE2    ; Output ; Info     ; Connected to dangling logic. Logic that only feeds a dangling port will be removed. ;
; COFFEE3   ; Output ; Info     ; Connected to dangling logic. Logic that only feeds a dangling port will be removed. ;
; MIX       ; Output ; Info     ; Connected to dangling logic. Logic that only feeds a dangling port will be removed. ;
; OPEN      ; Output ; Info     ; Connected to dangling logic. Logic that only feeds a dangling port will be removed. ;
; COIN_OUT  ; Output ; Info     ; Connected to dangling logic. Logic that only feeds a dangling port will be removed. ;
+-----------+--------+----------+-------------------------------------------------------------------------------------+


+---------------------------------+
; Analysis & Elaboration Messages ;
+---------------------------------+
Info: *******************************************************************
Info: Running Quartus Prime Analysis & Elaboration
    Info: Version 18.1.0 Build 625 09/12/2018 SJ Lite Edition
    Info: Processing started: Thu Jun 13 02:34:00 2019
Info: Command: quartus_map --read_settings_files=on --write_settings_files=off proyectofinal -c proyectofinal --analysis_and_elaboration
Warning (18236): Number of processors has not been specified which may cause overloading on shared machines.  Set the global assignment NUM_PARALLEL_PROCESSORS in your QSF to an appropriate value for best performance.
Info (20030): Parallel compilation is enabled and will use 2 of the 2 processors detected
Info (12021): Found 1 design units, including 1 entities, in source file MULTIPLEXOR.v
    Info (12023): Found entity 1: MULTIPLEXOR File: /home/berthabb/Documentos/Verilog/MULTIPLEXOR.v Line: 1
Info (12021): Found 1 design units, including 1 entities, in source file COFFEE_MACHINE.sv
    Info (12023): Found entity 1: COFFEE_MACHINE File: /home/berthabb/Documentos/Verilog/COFFEE_MACHINE.sv Line: 1
Info (12021): Found 1 design units, including 1 entities, in source file DECODER.sv
    Info (12023): Found entity 1: DECODER File: /home/berthabb/Documentos/Verilog/DECODER.sv Line: 1
Info (12021): Found 1 design units, including 1 entities, in source file _NOT.sv
    Info (12023): Found entity 1: _NOT File: /home/berthabb/Documentos/Verilog/_NOT.sv Line: 1
Info (12021): Found 1 design units, including 1 entities, in source file _AND.sv
    Info (12023): Found entity 1: _AND File: /home/berthabb/Documentos/Verilog/_AND.sv Line: 1
Info (12021): Found 1 design units, including 1 entities, in source file COUNTER.sv
    Info (12023): Found entity 1: COUNTER File: /home/berthabb/Documentos/Verilog/COUNTER.sv Line: 1
Info (12021): Found 1 design units, including 1 entities, in source file tbcoffee_machine.sv
    Info (12023): Found entity 1: tbcoffee_machine File: /home/berthabb/Documentos/Verilog/tbcoffee_machine.sv Line: 1
Info (12127): Elaborating entity "tbcoffee_machine" for the top level hierarchy
Info (12128): Elaborating entity "COFFEE_MACHINE" for hierarchy "COFFEE_MACHINE:dut" File: /home/berthabb/Documentos/Verilog/tbcoffee_machine.sv Line: 6
Warning (10034): Output port "PLACE" at COFFEE_MACHINE.sv(2) has no driver File: /home/berthabb/Documentos/Verilog/COFFEE_MACHINE.sv Line: 2
Warning (10034): Output port "FILL" at COFFEE_MACHINE.sv(2) has no driver File: /home/berthabb/Documentos/Verilog/COFFEE_MACHINE.sv Line: 2
Warning (10034): Output port "COFFE1" at COFFEE_MACHINE.sv(2) has no driver File: /home/berthabb/Documentos/Verilog/COFFEE_MACHINE.sv Line: 2
Warning (10034): Output port "COFEE2" at COFFEE_MACHINE.sv(2) has no driver File: /home/berthabb/Documentos/Verilog/COFFEE_MACHINE.sv Line: 2
Warning (10034): Output port "COFFEE3" at COFFEE_MACHINE.sv(2) has no driver File: /home/berthabb/Documentos/Verilog/COFFEE_MACHINE.sv Line: 2
Warning (10034): Output port "MIX" at COFFEE_MACHINE.sv(2) has no driver File: /home/berthabb/Documentos/Verilog/COFFEE_MACHINE.sv Line: 2
Warning (10034): Output port "OPEN" at COFFEE_MACHINE.sv(2) has no driver File: /home/berthabb/Documentos/Verilog/COFFEE_MACHINE.sv Line: 2
Warning (10034): Output port "COIN_OUT" at COFFEE_MACHINE.sv(2) has no driver File: /home/berthabb/Documentos/Verilog/COFFEE_MACHINE.sv Line: 2
Info (12128): Elaborating entity "DECODER" for hierarchy "COFFEE_MACHINE:dut|DECODER:deco_Unit" File: /home/berthabb/Documentos/Verilog/COFFEE_MACHINE.sv Line: 35
Warning (10230): Verilog HDL assignment warning at DECODER.sv(4): truncated value with size 4 to match size of target (1) File: /home/berthabb/Documentos/Verilog/DECODER.sv Line: 4
Warning (10230): Verilog HDL assignment warning at DECODER.sv(11): truncated value with size 16 to match size of target (1) File: /home/berthabb/Documentos/Verilog/DECODER.sv Line: 11
Warning (10199): Verilog HDL Case Statement warning at DECODER.sv(12): case item expression never matches the case expression File: /home/berthabb/Documentos/Verilog/DECODER.sv Line: 12
Warning (10199): Verilog HDL Case Statement warning at DECODER.sv(13): case item expression never matches the case expression File: /home/berthabb/Documentos/Verilog/DECODER.sv Line: 13
Warning (10199): Verilog HDL Case Statement warning at DECODER.sv(14): case item expression never matches the case expression File: /home/berthabb/Documentos/Verilog/DECODER.sv Line: 14
Warning (10199): Verilog HDL Case Statement warning at DECODER.sv(15): case item expression never matches the case expression File: /home/berthabb/Documentos/Verilog/DECODER.sv Line: 15
Warning (10199): Verilog HDL Case Statement warning at DECODER.sv(16): case item expression never matches the case expression File: /home/berthabb/Documentos/Verilog/DECODER.sv Line: 16
Warning (10230): Verilog HDL assignment warning at DECODER.sv(17): truncated value with size 16 to match size of target (1) File: /home/berthabb/Documentos/Verilog/DECODER.sv Line: 17
Warning (10230): Verilog HDL assignment warning at DECODER.sv(23): truncated value with size 16 to match size of target (1) File: /home/berthabb/Documentos/Verilog/DECODER.sv Line: 23
Warning (10199): Verilog HDL Case Statement warning at DECODER.sv(24): case item expression never matches the case expression File: /home/berthabb/Documentos/Verilog/DECODER.sv Line: 24
Warning (10199): Verilog HDL Case Statement warning at DECODER.sv(25): case item expression never matches the case expression File: /home/berthabb/Documentos/Verilog/DECODER.sv Line: 25
Warning (10199): Verilog HDL Case Statement warning at DECODER.sv(26): case item expression never matches the case expression File: /home/berthabb/Documentos/Verilog/DECODER.sv Line: 26
Warning (10230): Verilog HDL assignment warning at DECODER.sv(27): truncated value with size 16 to match size of target (1) File: /home/berthabb/Documentos/Verilog/DECODER.sv Line: 27
Info (12128): Elaborating entity "_NOT" for hierarchy "COFFEE_MACHINE:dut|_NOT:NOT_Unit" File: /home/berthabb/Documentos/Verilog/COFFEE_MACHINE.sv Line: 37
Info (12128): Elaborating entity "COUNTER" for hierarchy "COFFEE_MACHINE:dut|COUNTER:contador_Unit" File: /home/berthabb/Documentos/Verilog/COFFEE_MACHINE.sv Line: 40
Warning (10240): Verilog HDL Always Construct warning at COUNTER.sv(3): inferring latch(es) for variable "Qa", which holds its previous value in one or more paths through the always construct File: /home/berthabb/Documentos/Verilog/COUNTER.sv Line: 3
Warning (10240): Verilog HDL Always Construct warning at COUNTER.sv(3): inferring latch(es) for variable "Qb", which holds its previous value in one or more paths through the always construct File: /home/berthabb/Documentos/Verilog/COUNTER.sv Line: 3
Warning (10240): Verilog HDL Always Construct warning at COUNTER.sv(3): inferring latch(es) for variable "Qc", which holds its previous value in one or more paths through the always construct File: /home/berthabb/Documentos/Verilog/COUNTER.sv Line: 3
Warning (10240): Verilog HDL Always Construct warning at COUNTER.sv(3): inferring latch(es) for variable "Qd", which holds its previous value in one or more paths through the always construct File: /home/berthabb/Documentos/Verilog/COUNTER.sv Line: 3
Info (10041): Inferred latch for "Qd" at COUNTER.sv(3) File: /home/berthabb/Documentos/Verilog/COUNTER.sv Line: 3
Info (10041): Inferred latch for "Qc" at COUNTER.sv(3) File: /home/berthabb/Documentos/Verilog/COUNTER.sv Line: 3
Info (10041): Inferred latch for "Qb" at COUNTER.sv(3) File: /home/berthabb/Documentos/Verilog/COUNTER.sv Line: 3
Info (10041): Inferred latch for "Qa" at COUNTER.sv(3) File: /home/berthabb/Documentos/Verilog/COUNTER.sv Line: 3
Info (12128): Elaborating entity "MULTIPLEXOR" for hierarchy "COFFEE_MACHINE:dut|MULTIPLEXOR:multiplexor_Unit" File: /home/berthabb/Documentos/Verilog/COFFEE_MACHINE.sv Line: 43
Warning (10036): Verilog HDL or VHDL warning at MULTIPLEXOR.v(5): object "OUT_DATA" assigned a value but never read File: /home/berthabb/Documentos/Verilog/MULTIPLEXOR.v Line: 5
Warning (10230): Verilog HDL assignment warning at MULTIPLEXOR.v(6): truncated value with size 8 to match size of target (1) File: /home/berthabb/Documentos/Verilog/MULTIPLEXOR.v Line: 6
Warning (10230): Verilog HDL assignment warning at MULTIPLEXOR.v(8): truncated value with size 4 to match size of target (1) File: /home/berthabb/Documentos/Verilog/MULTIPLEXOR.v Line: 8
Warning (10230): Verilog HDL assignment warning at MULTIPLEXOR.v(14): truncated value with size 8 to match size of target (1) File: /home/berthabb/Documentos/Verilog/MULTIPLEXOR.v Line: 14
Warning (10230): Verilog HDL assignment warning at MULTIPLEXOR.v(15): truncated value with size 8 to match size of target (1) File: /home/berthabb/Documentos/Verilog/MULTIPLEXOR.v Line: 15
Warning (10199): Verilog HDL Case Statement warning at MULTIPLEXOR.v(16): case item expression never matches the case expression File: /home/berthabb/Documentos/Verilog/MULTIPLEXOR.v Line: 16
Warning (10199): Verilog HDL Case Statement warning at MULTIPLEXOR.v(17): case item expression never matches the case expression File: /home/berthabb/Documentos/Verilog/MULTIPLEXOR.v Line: 17
Warning (10199): Verilog HDL Case Statement warning at MULTIPLEXOR.v(18): case item expression never matches the case expression File: /home/berthabb/Documentos/Verilog/MULTIPLEXOR.v Line: 18
Warning (10199): Verilog HDL Case Statement warning at MULTIPLEXOR.v(19): case item expression never matches the case expression File: /home/berthabb/Documentos/Verilog/MULTIPLEXOR.v Line: 19
Warning (10199): Verilog HDL Case Statement warning at MULTIPLEXOR.v(20): case item expression never matches the case expression File: /home/berthabb/Documentos/Verilog/MULTIPLEXOR.v Line: 20
Warning (10199): Verilog HDL Case Statement warning at MULTIPLEXOR.v(21): case item expression never matches the case expression File: /home/berthabb/Documentos/Verilog/MULTIPLEXOR.v Line: 21
Warning (10034): Output port "D0" at MULTIPLEXOR.v(3) has no driver File: /home/berthabb/Documentos/Verilog/MULTIPLEXOR.v Line: 3
Warning (10034): Output port "D1" at MULTIPLEXOR.v(3) has no driver File: /home/berthabb/Documentos/Verilog/MULTIPLEXOR.v Line: 3
Warning (10034): Output port "D2" at MULTIPLEXOR.v(3) has no driver File: /home/berthabb/Documentos/Verilog/MULTIPLEXOR.v Line: 3
Warning (10034): Output port "D3" at MULTIPLEXOR.v(3) has no driver File: /home/berthabb/Documentos/Verilog/MULTIPLEXOR.v Line: 3
Warning (10034): Output port "D4" at MULTIPLEXOR.v(3) has no driver File: /home/berthabb/Documentos/Verilog/MULTIPLEXOR.v Line: 3
Warning (10034): Output port "D5" at MULTIPLEXOR.v(3) has no driver File: /home/berthabb/Documentos/Verilog/MULTIPLEXOR.v Line: 3
Warning (10034): Output port "D6" at MULTIPLEXOR.v(3) has no driver File: /home/berthabb/Documentos/Verilog/MULTIPLEXOR.v Line: 3
Warning (10034): Output port "D7" at MULTIPLEXOR.v(3) has no driver File: /home/berthabb/Documentos/Verilog/MULTIPLEXOR.v Line: 3
Warning (10034): Output port "Y" at MULTIPLEXOR.v(3) has no driver File: /home/berthabb/Documentos/Verilog/MULTIPLEXOR.v Line: 3
Warning (10034): Output port "W" at MULTIPLEXOR.v(3) has no driver File: /home/berthabb/Documentos/Verilog/MULTIPLEXOR.v Line: 3
Info (12128): Elaborating entity "_AND" for hierarchy "COFFEE_MACHINE:dut|_AND:AND_Unit" File: /home/berthabb/Documentos/Verilog/COFFEE_MACHINE.sv Line: 45
Warning (12241): 3 hierarchies have connectivity warnings - see the Connectivity Checks report folder
Info: Quartus Prime Analysis & Elaboration was successful. 0 errors, 48 warnings
    Info: Peak virtual memory: 1260 megabytes
    Info: Processing ended: Thu Jun 13 02:34:19 2019
    Info: Elapsed time: 00:00:19
    Info: Total CPU time (on all processors): 00:00:37


